proj2/q2/output.vcd
$date
	Thu May 26 19:10:30 2022
$end
$version
	Icarus Verilog
$end
$timescale
	100ps
$end
$scope module proj2_tb $end
$var wire 7 ! out_0451 [6:0] $end
$var wire 3 " ct [2:0] $end
$var wire 6 # base64 [5:0] $end
$var wire 1 $ ascii_on $end
$var wire 7 % ascii [6:0] $end
$var reg 1 & clk $end
$var reg 1 ' inp $end
$var reg 1 ( over $end
$var reg 1 ) reset $end
$var reg 98 * stream [97:0] $end
$var integer 32 + i [31:0] $end
$scope module tp $end
$var wire 7 , ascii [6:0] $end
$var wire 1 $ ascii_on $end
$var wire 6 - base64 [5:0] $end
$var wire 1 & clk $end
$var wire 1 ' in $end
$var wire 1 ( over $end
$var wire 1 ) rst $end
$var wire 7 . out [6:0] $end
$var wire 1 / on $end
$var wire 6 0 mid_contact [5:0] $end
$var wire 7 1 mid_ascii [6:0] $end
$var wire 3 2 count [2:0] $end
$scope module final $end
$var wire 6 3 in [5:0] $end
$var reg 7 4 out [6:0] $end
$upscope $end
$scope module rl $end
$var wire 1 ( over $end
$var wire 1 ) rst $end
$var wire 7 5 in [6:0] $end
$var wire 1 / active $end
$var reg 3 6 count [2:0] $end
$var reg 6 7 out [5:0] $end
$var reg 6 8 remind [5:0] $end
$upscope $end
$scope module tst $end
$var wire 1 & clk $end
$var wire 1 ' in $end
$var wire 1 ) rst $end
$var reg 3 9 count [2:0] $end
$var reg 1 / on $end
$var reg 7 : out [6:0] $end
$var reg 7 ; r_out [6:0] $end
$upscope $end
$upscope $end
$upscope $end
$enddefinitions $end
#0
$dumpvars
b0 ;
b0 :
b0 9
b0 8
b0 7
b0 6
b0 5
b1000001 4
b0 3
b0 2
b0 1
b0 0
0/
b1000001 .
b0 -
b0 ,
bx +
b10000111001111100110110100000110011011000101100011011111110100111100111011111110011011101011101110 *
0)
0(
0'
0&
b0 %
0$
b0 #
b0 "
b1000001 !
$end
#5
1&
#10
0&
#15
1&
#20
0&
#25
1&
#30
0&
#35
1&
#40
0&
1'
b1100001 +
1)
#45
b1 9
b1 %
b1 ,
b1 1
b1 5
b1 :
1&
#50
0&
0'
b1100000 +
#55
b10 9
b10 %
b10 ,
b10 1
b10 5
b10 :
1&
#60
0&
b1011111 +
#65
b11 9
b100 %
b100 ,
b100 1
b100 5
b100 :
1&
#70
0&
b1011110 +
#75
b100 9
b1000 %
b1000 ,
b1000 1
b1000 5
b1000 :
1&
#80
0&
b1011101 +
#85
b101 9
b10000 %
b10000 ,
b10000 1
b10000 5
b10000 :
1&
#90
0&
1'
b1011100 +
#95
b110 9
b100001 %
b100001 ,
b100001 1
b100001 5
b100001 :
1&
#100
0&
b1011011 +
#105
b1101000 !
b1101000 .
b1101000 4
b1 "
b1 2
b1 6
b100001 #
b100001 -
b100001 0
b100001 3
b100001 7
b100000 8
b1000011 ;
b0 9
1$
1/
b1000011 %
b1000011 ,
b1000011 1
b1000011 5
b1000011 :
1&
#110
0&
b1011010 +
#115
b1 9
b111 %
b111 ,
b111 1
b111 5
b111 :
0$
0/
1&
#120
0&
0'
b1011001 +
#125
b10 9
b1110 %
b1110 ,
b1110 1
b1110 5
b1110 :
1&
#130
0&
b1011000 +
#135
b11 9
b11100 %
b11100 ,
b11100 1
b11100 5
b11100 :
1&
#140
0&
1'
b1010111 +
#145
b100 9
b111001 %
b111001 ,
b111001 1
b111001 5
b111001 :
1&
#150
0&
b1010110 +
#155
b101 9
b1110011 %
b1110011 ,
b1110011 1
b1110011 5
b1110011 :
1&
#160
0&
b1010101 +
#165
b110 9
b1100111 %
b1100111 ,
b1100111 1
b1100111 5
b1100111 :
1&
#170
0&
b1010100 +
#175
b1111010 !
b1111010 .
b1111010 4
b10 "
b10 2
b10 6
b110000 8
b110011 #
b110011 -
b110011 0
b110011 3
b110011 7
b1001111 ;
b0 9
1$
1/
b1001111 %
b1001111 ,
b1001111 1
b1001111 5
b1001111 :
1&
#180
0&
b1010011 +
#185
b1 9
b11111 %
b11111 ,
b11111 1
b11111 5
b11111 :
0$
0/
1&
#190
0&
0'
b1010010 +
#195
b10 9
b111110 %
b111110 ,
b111110 1
b111110 5
b111110 :
1&
#200
0&
b1010001 +
#205
b11 9
b1111100 %
b1111100 ,
b1111100 1
b1111100 5
b1111100 :
1&
#210
0&
1'
b1010000 +
#215
b100 9
b1111001 %
b1111001 ,
b1111001 1
b1111001 5
b1111001 :
1&
#220
0&
b1001111 +
#225
b101 9
b1110011 %
b1110011 ,
b1110011 1
b1110011 5
b1110011 :
1&
#230
0&
0'
b1001110 +
#235
b110 9
b1100110 %
b1100110 ,
b1100110 1
b1100110 5
b1100110 :
1&
#240
0&
1'
b1001101 +
#245
b110101 !
b110101 .
b110101 4
b11 "
b11 2
b11 6
b101000 8
b111001 #
b111001 -
b111001 0
b111001 3
b111001 7
b1001101 ;
b0 9
1$
1/
b1001101 %
b1001101 ,
b1001101 1
b1001101 5
b1001101 :
1&
#250
0&
b1001100 +
#255
b1 9
b11011 %
b11011 ,
b11011 1
b11011 5
b11011 :
0$
0/
1&
#260
0&
0'
b1001011 +
#265
b10 9
b110110 %
b110110 ,
b110110 1
b110110 5
b110110 :
1&
#270
0&
1'
b1001010 +
#275
b11 9
b1101101 %
b1101101 ,
b1101101 1
b1101101 5
b1101101 :
1&
#280
0&
0'
b1001001 +
#285
b100 9
b1011010 %
b1011010 ,
b1011010 1
b1011010 5
b1011010 :
1&
#290
0&
b1001000 +
#295
b101 9
b110100 %
b110100 ,
b110100 1
b110100 5
b110100 :
1&
#300
0&
b1000111 +
#305
b110 9
b1101000 %
b1101000 ,
b1101000 1
b1101000 5
b1101000 :
1&
#310
0&
b1000110 +
#315
b1110100 !
b1110100 .
b1110100 4
b100 "
b100 2
b100 6
b0 8
b101101 #
b101101 -
b101101 0
b101101 3
b101101 7
b1010000 ;
b0 9
1$
1/
b1010000 %
b1010000 ,
b1010000 1
b1010000 5
b1010000 :
1&
#320
0&
b1000101 +
#325
b1 9
b100000 %
b100000 ,
b100000 1
b100000 5
b100000 :
0$
0/
1&
#330
0&
1'
b1000100 +
#335
b10 9
b1000001 %
b1000001 ,
b1000001 1
b1000001 5
b1000001 :
1&
#340
0&
b1000011 +
#345
b11 9
b11 %
b11 ,
b11 1
b11 5
b11 :
1&
#350
0&
0'
b1000010 +
#355
b100 9
b110 %
b110 ,
b110 1
b110 5
b110 :
1&
#360
0&
b1000001 +
#365
b101 9
b1100 %
b1100 ,
b1100 1
b1100 5
b1100 :
1&
#370
0&
1'
b1000000 +
#375
b110 9
b11001 %
b11001 ,
b11001 1
b11001 5
b11001 :
1&
#380
0&
b111111 +
#385
b1000010 !
b1000010 .
b1000010 4
b101 "
b101 2
b101 6
b100110 8
b1 #
b1 -
b1 0
b1 3
b1 7
b110011 ;
b0 9
1$
1/
b110011 %
b110011 ,
b110011 1
b110011 5
b110011 :
1&
#390
0&
0'
b111110 +
#395
b1 9
b1100110 %
b1100110 ,
b1100110 1
b1100110 5
b1100110 :
0$
0/
1&
#400
0&
1'
b111101 +
#405
b10 9
b1001101 %
b1001101 ,
b1001101 1
b1001101 5
b1001101 :
1&
#410
0&
b111100 +
#415
b11 9
b11011 %
b11011 ,
b11011 1
b11011 5
b11011 :
1&
#420
0&
0'
b111011 +
#425
b100 9
b110110 %
b110110 ,
b110110 1
b110110 5
b110110 :
1&
#430
0&
b111010 +
#435
b101 9
b1101100 %
b1101100 ,
b1101100 1
b1101100 5
b1101100 :
1&
#440
0&
b111001 +
#445
b110 9
b1011000 %
b1011000 ,
b1011000 1
b1011000 5
b1011000 :
1&
#450
0&
1'
b111000 +
#455
b1101101 !
b1101101 .
b1101101 4
b110 "
b110 2
b110 6
b110001 8
b100110 #
b100110 -
b100110 0
b100110 3
b100110 7
b110001 ;
b0 9
1$
1/
b110001 %
b110001 ,
b110001 1
b110001 5
b110001 :
1&
#460
0&
0'
b110111 +
#465
b1111000 !
b1111000 .
b1111000 4
b0 "
b0 2
b0 6
b0 8
b110001 #
b110001 -
b110001 0
b110001 3
b110001 7
b1 9
b1100010 %
b1100010 ,
b1100010 1
b1100010 5
b1100010 :
0$
0/
1&
#470
0&
1'
b110110 +
#475
b10 9
b1000101 %
b1000101 ,
b1000101 1
b1000101 5
b1000101 :
1&
#480
0&
b110101 +
#485
b11 9
b1011 %
b1011 ,
b1011 1
b1011 5
b1011 :
1&
#490
0&
0'
b110100 +
#495
b100 9
b10110 %
b10110 ,
b10110 1
b10110 5
b10110 :
1&
#500
0&
b110011 +
#505
b101 9
b101100 %
b101100 ,
b101100 1
b101100 5
b101100 :
1&
#510
0&
b110010 +
#515
b110 9
b1011000 %
b1011000 ,
b1011000 1
b1011000 5
b1011000 :
1&
#520
0&
1'
b110001 +
#525
b1011001 !
b1011001 .
b1011001 4
b1 "
b1 2
b1 6
b100000 8
b11000 #
b11000 -
b11000 0
b11000 3
b11000 7
b0 9
1$
1/
b110001 %
b110001 ,
b110001 1
b110001 5
b110001 :
1&
#530
0&
b110000 +
#535
b1 9
b1100011 %
b1100011 ,
b1100011 1
b1100011 5
b1100011 :
0$
0/
1&
#540
0&
0'
b101111 +
#545
b10 9
b1000110 %
b1000110 ,
b1000110 1
b1000110 5
b1000110 :
1&
#550
0&
1'
b101110 +
#555
b11 9
b1101 %
b1101 ,
b1101 1
b1101 5
b1101 :
1&
#560
0&
b101101 +
#565
b100 9
b11011 %
b11011 ,
b11011 1
b11011 5
b11011 :
1&
#570
0&
b101100 +
#575
b101 9
b110111 %
b110111 ,
b110111 1
b110111 5
b110111 :
1&
#580
0&
b101011 +
#585
b110 9
b1101111 %
b1101111 ,
b1101111 1
b1101111 5
b1101111 :
1&
#590
0&
b101010 +
#595
b110011 !
b110011 .
b110011 4
b10 "
b10 2
b10 6
b110000 8
b110111 #
b110111 -
b110111 0
b110111 3
b110111 7
b1011111 ;
b0 9
1$
1/
b1011111 %
b1011111 ,
b1011111 1
b1011111 5
b1011111 :
1&
#600
0&
b101001 +
#605
b1 9
b111111 %
b111111 ,
b111111 1
b111111 5
b111111 :
0$
0/
1&
#610
0&
b101000 +
#615
b10 9
b1111111 %
b1111111 ,
b1111111 1
b1111111 5
b1111111 :
1&
#620
0&
0'
b100111 +
#625
b11 9
b1111110 %
b1111110 ,
b1111110 1
b1111110 5
b1111110 :
1&
#630
0&
1'
b100110 +
#635
b100 9
b1111101 %
b1111101 ,
b1111101 1
b1111101 5
b1111101 :
1&
#640
0&
0'
b100101 +
#645
b101 9
b1111010 %
b1111010 ,
b1111010 1
b1111010 5
b1111010 :
1&
#650
0&
b100100 +
#655
b110 9
b1110100 %
b1110100 ,
b1110100 1
b1110100 5
b1110100 :
1&
#660
0&
1'
b100011 +
#665
b111001 !
b111001 .
b111001 4
b11 "
b11 2
b11 6
b1000 8
b111101 #
b111101 -
b111101 0
b111101 3
b111101 7
b1101001 ;
b0 9
1$
1/
b1101001 %
b1101001 ,
b1101001 1
b1101001 5
b1101001 :
1&
#670
0&
b100010 +
#675
b1 9
b1010011 %
b1010011 ,
b1010011 1
b1010011 5
b1010011 :
0$
0/
1&
#680
0&
b100001 +
#685
b10 9
b100111 %
b100111 ,
b100111 1
b100111 5
b100111 :
1&
#690
0&
b100000 +
#695
b11 9
b1001111 %
b1001111 ,
b1001111 1
b1001111 5
b1001111 :
1&
#700
0&
0'
b11111 +
#705
b100 9
b11110 %
b11110 ,
b11110 1
b11110 5
b11110 :
1&
#710
0&
b11110 +
#715
b101 9
b111100 %
b111100 ,
b111100 1
b111100 5
b111100 :
1&
#720
0&
1'
b11101 +
#725
b110 9
b1111001 %
b1111001 ,
b1111001 1
b1111001 5
b1111001 :
1&
#730
0&
b11100 +
#735
b1010000 !
b1010000 .
b1010000 4
b100 "
b100 2
b100 6
b1100 8
b1111 #
b1111 -
b1111 0
b1111 3
b1111 7
b1110011 ;
b0 9
1$
1/
b1110011 %
b1110011 ,
b1110011 1
b1110011 5
b1110011 :
1&
#740
0&
b11011 +
#745
b1 9
b1100111 %
b1100111 ,
b1100111 1
b1100111 5
b1100111 :
0$
0/
1&
#750
0&
0'
b11010 +
#755
b10 9
b1001110 %
b1001110 ,
b1001110 1
b1001110 5
b1001110 :
1&
#760
0&
1'
b11001 +
#765
b11 9
b11101 %
b11101 ,
b11101 1
b11101 5
b11101 :
1&
#770
0&
b11000 +
#775
b100 9
b111011 %
b111011 ,
b111011 1
b111011 5
b111011 :
1&
#780
0&
b10111 +
#785
b101 9
b1110111 %
b1110111 ,
b1110111 1
b1110111 5
b1110111 :
1&
#790
0&
b10110 +
#795
b110 9
b1101111 %
b1101111 ,
b1101111 1
b1101111 5
b1101111 :
1&
#800
0&
b10101 +
#805
b1001111 !
b1001111 .
b1001111 4
b101 "
b101 2
b101 6
b111110 8
b1110 #
b1110 -
b1110 0
b1110 3
b1110 7
b1011111 ;
b0 9
1$
1/
b1011111 %
b1011111 ,
b1011111 1
b1011111 5
b1011111 :
1&
#810
0&
b10100 +
#815
b1 9
b111111 %
b111111 ,
b111111 1
b111111 5
b111111 :
0$
0/
1&
#820
0&
b10011 +
#825
b10 9
b1111111 %
b1111111 ,
b1111111 1
b1111111 5
b1111111 :
1&
#830
0&
0'
b10010 +
#835
b11 9
b1111110 %
b1111110 ,
b1111110 1
b1111110 5
b1111110 :
1&
#840
0&
b10001 +
#845
b100 9
b1111100 %
b1111100 ,
b1111100 1
b1111100 5
b1111100 :
1&
#850
0&
1'
b10000 +
#855
b101 9
b1111001 %
b1111001 ,
b1111001 1
b1111001 5
b1111001 :
1&
#860
0&
b1111 +
#865
b110 9
b1110011 %
b1110011 ,
b1110011 1
b1110011 5
b1110011 :
1&
#870
0&
0'
b1110 +
#875
b101111 !
b101111 .
b101111 4
b110 "
b110 2
b110 6
b100110 8
b111111 #
b111111 -
b111111 0
b111111 3
b111111 7
b1100110 ;
b0 9
1$
1/
b1100110 %
b1100110 ,
b1100110 1
b1100110 5
b1100110 :
1&
#880
0&
1'
b1101 +
#885
b1101101 !
b1101101 .
b1101101 4
b0 "
b0 2
b0 6
b0 8
b100110 #
b100110 -
b100110 0
b100110 3
b100110 7
b1 9
b1001101 %
b1001101 ,
b1001101 1
b1001101 5
b1001101 :
0$
0/
1&
#890
0&
b1100 +
#895
b10 9
b11011 %
b11011 ,
b11011 1
b11011 5
b11011 :
1&
#900
0&
b1011 +
#905
b11 9
b110111 %
b110111 ,
b110111 1
b110111 5
b110111 :
1&
#910
0&
0'
b1010 +
#915
b100 9
b1101110 %
b1101110 ,
b1101110 1
b1101110 5
b1101110 :
1&
#920
0&
1'
b1001 +
#925
b101 9
b1011101 %
b1011101 ,
b1011101 1
b1011101 5
b1011101 :
1&
#930
0&
0'
b1000 +
#935
b110 9
b111010 %
b111010 ,
b111010 1
b111010 5
b111010 :
1&
#940
0&
1'
b111 +
#945
b110110 !
b110110 .
b110110 4
b1 "
b1 2
b1 6
b100000 8
b111010 #
b111010 -
b111010 0
b111010 3
b111010 7
b1110101 ;
b0 9
1$
1/
b1110101 %
b1110101 ,
b1110101 1
b1110101 5
b1110101 :
1&
#950
0&
b110 +
#955
b1 9
b1101011 %
b1101011 ,
b1101011 1
b1101011 5
b1101011 :
0$
0/
1&
#960
0&
b101 +
#965
b10 9
b1010111 %
b1010111 ,
b1010111 1
b1010111 5
b1010111 :
1&
#970
0&
0'
b100 +
#975
b11 9
b101110 %
b101110 ,
b101110 1
b101110 5
b101110 :
1&
#980
0&
1'
b11 +
#985
b100 9
b1011101 %
b1011101 ,
b1011101 1
b1011101 5
b1011101 :
1&
#990
0&
b10 +
#995
b101 9
b111011 %
b111011 ,
b111011 1
b111011 5
b111011 :
1&
#1000
0&
b1 +
#1005
b110 9
b1110111 %
b1110111 ,
b1110111 1
b1110111 5
b1110111 :
1&
#1010
0&
0'
b0 +
#1015
b110111 !
b110111 .
b110111 4
b10 "
b10 2
b10 6
b111011 #
b111011 -
b111011 0
b111011 3
b111011 7
b1101110 ;
b0 9
1$
1/
b1101110 %
b1101110 ,
b1101110 1
b1101110 5
b1101110 :
1&
#1020
0&
b11111111111111111111111111111111 +
#1025
b1 9
b1011100 %
b1011100 ,
b1011100 1
b1011100 5
b1011100 :
0$
0/
1&
#1030
0&
#1035
b10 9
b111000 %
b111000 ,
b111000 1
b111000 5
b111000 :
1&
#1040
b1100111 !
b1100111 .
b1100111 4
b100000 #
b100000 -
b100000 0
b100000 3
b100000 7
0&
1(
#1045
b11 9
b1110000 %
b1110000 ,
b1110000 1
b1110000 5
b1110000 :
1&
#1050
0&
#1055
b100 9
b1100000 %
b1100000 ,
b1100000 1
b1100000 5
b1100000 :
1&
